('C:\\Users\\belle_ang\\Desktop\\Workplace\\evaluation_instrument\\prober\\socket_artek\\communication\\build\\server\\PKG-00.pkg',
 {'BINARY': 1,
  'DATA': 1,
  'EXECUTABLE': 1,
  'EXTENSION': 1,
  'PYMODULE': 1,
  'PYSOURCE': 1,
  'PYZ': 0},
 [('PYZ-00.pyz',
   'C:\\Users\\belle_ang\\Desktop\\Workplace\\evaluation_instrument\\prober\\socket_artek\\communication\\build\\server\\PYZ-00.pyz',
   'PYZ'),
  ('struct', 'C:\\Users\\belle_ang\\Anaconda3\\lib\\struct.pyo', 'PYMODULE'),
  ('pyimod01_os_path',
   'C:\\Users\\belle_ang\\Anaconda3\\lib\\site-packages\\PyInstaller\\loader\\pyimod01_os_path.pyc',
   'PYMODULE'),
  ('pyimod02_archive',
   'C:\\Users\\belle_ang\\Anaconda3\\lib\\site-packages\\PyInstaller\\loader\\pyimod02_archive.pyc',
   'PYMODULE'),
  ('pyimod03_importers',
   'C:\\Users\\belle_ang\\Anaconda3\\lib\\site-packages\\PyInstaller\\loader\\pyimod03_importers.pyc',
   'PYMODULE'),
  ('pyiboot01_bootstrap',
   'C:\\Users\\belle_ang\\Anaconda3\\lib\\site-packages\\PyInstaller\\loader\\pyiboot01_bootstrap.py',
   'PYSOURCE'),
  ('server',
   'C:\\Users\\belle_ang\\Desktop\\Workplace\\evaluation_instrument\\prober\\socket_artek\\communication\\server.py',
   'PYSOURCE'),
  ('server.exe.manifest',
   'C:\\Users\\belle_ang\\Desktop\\Workplace\\evaluation_instrument\\prober\\socket_artek\\communication\\build\\server\\server.exe.manifest',
   'BINARY')],
 True,
 False,
 False)
